<?xml version="1.0" encoding="UTF-8"?>
<session version="1.0">
<refactoring comment="Delete resource &apos;Ej18_min&apos;" deleteContents="false" description="Delete resource &apos;Ej18_min&apos;" element1="/Ej18_min" flags="7" id="org.eclipse.ltk.core.refactoring.delete.resources" resources="1" stamp="1538048970960"/>
</session>